…
### More on group_by()

``` r
# you can group by multiple variables, and then summarize or mutate within those groups
# e.g., we want the mean number of home goals per team per season
df |>
  select(season = Season, team = home, goals = hgoal) |>
  group_by(season, team) |>
  summarize(goals = mean(goals))
```

    `summarise()` has grouped output by 'season'. You can override using the
    `.groups` argument.

    # A tibble: 9,555 × 3
    # Groups:   season [123]
       season team              goals
        <dbl> <chr>             <dbl>
     1   1888 Accrington F.C.    2.36
     2   1888 Aston Villa        4   
     3   1888 Blackburn Rovers   4   
     4   1888 Bolton Wanderers   3.18
     5   1888 Burnley            1.91
     6   1888 Derby County       2   
     7   1888 Everton            2.18
     8   1888 Notts County       2.27
     9   1888 Preston North End  3.55
    10   1888 Stoke City         1.36
    # ℹ 9,545 more rows
…
df |>
  select(season = Season, team = home, goals = hgoal) |>
  group_by(season, team) |>
  summarize(goals = mean(goals)) |>
  ungroup()
```

    `summarise()` has grouped output by 'season'. You can override using the
    `.groups` argument.

    # A tibble: 9,555 × 3
       season team              goals
        <dbl> <chr>             <dbl>
     1   1888 Accrington F.C.    2.36
     2   1888 Aston Villa        4   
     3   1888 Blackburn Rovers   4   
     4   1888 Bolton Wanderers   3.18
     5   1888 Burnley            1.91
     6   1888 Derby County       2   
     7   1888 Everton            2.18
     8   1888 Notts County       2.27
     9   1888 Preston North End  3.55
    10   1888 Stoke City         1.36
    # ℹ 9,545 more rows
…
